The Hubverse: Streamlining Collaborative Infectious Disease Modeling
…
Query and collect data

# Filter for one model and forecast date using dplyr
library(dplyr)
hub_con |>
  filter(
    model_id == "CADPH-FluCAT_Ensemble",
    target_end_date == "2023-10-28"
  ) |>
  collect_hub()

# A tibble: 92 × 9
   model_id   reference_date target horizon target_end_date location output_type
 * <chr>      <date>         <chr>    <int> <date>          <chr>    <chr>      
 1 CADPH-Flu… 2023-10-14     wk in…       2 2023-10-28      06       quantile   
 2 CADPH-Flu… 2023-10-14     wk in…       2 2023-10-28      06       quantile   
 3 CADPH-Flu… 2023-10-14     wk in…       2 2023-10-28      06       quantile   
 4 CADPH-Flu… 2023-10-14     wk in…       2 2023-10-28      06       quantile   
 5 CADPH-Flu… 2023-10-14     wk in…       2 2023-10-28      06       quantile   
 6 CADPH-Flu… 2023-10-14     wk in…       2 2023-10-28      06       quantile   
 7 CADPH-Flu… 2023-10-14     wk in…       2 2023-10-28      06       quantile   
 8 CADPH-Flu… 2023-10-14     wk in…       2 2023-10-28      06       quantile   
 9 CADPH-Flu… 2023-10-14     wk in…       2 2023-10-28      06       quantile   
10 CADPH-Flu… 2023-10-14     wk in…       2 2023-10-28      06       quantile   
# ℹ 82 more rows
# ℹ 2 more variables: output_type_id <chr>, value <dbl>
…
hubEnsembles::simple_ensemble(
  forecast_df, 
  agg_fun = median,
  model_id = "simple-ensemble-median"
)

# A tibble: 282,716 × 9
   model_id   reference_date target horizon target_end_date location output_type
 * <chr>      <date>         <chr>    <int> <date>          <chr>    <chr>      
 1 simple-en… 2023-10-14     wk in…      -1 2023-10-07      01       quantile   
 2 simple-en… 2023-10-14     wk in…      -1 2023-10-07      01       quantile   
 3 simple-en… 2023-10-14     wk in…      -1 2023-10-07      01       quantile   
 4 simple-en… 2023-10-14     wk in…      -1 2023-10-07      01       quantile   
 5 simple-en… 2023-10-14     wk in…      -1 2023-10-07      01       quantile   
 6 simple-en… 2023-10-14     wk in…      -1 2023-10-07      01       quantile   
 7 simple-en… 2023-10-14     wk in…      -1 2023-10-07      01       quantile   
 8 simple-en… 2023-10-14     wk in…      -1 2023-10-07      01       quantile   
 9 simple-en… 2023-10-14     wk in…      -1 2023-10-07      01       quantile   
10 simple-en… 2023-10-14     wk in…      -1 2023-10-07      01       quantile   
# ℹ 282,706 more rows
# ℹ 2 more variables: output_type_id <chr>, value <dbl>
…
